3.0, 5.0, 2.0, 3.0, 8.0
0.016075353115727053, 0.003603721948549077, 0.0035658743633294465, 0.1082830315224671, 0.003542590618339281
24.0, 9667.0, 3289.0, 1765.0, 325.0
6240.0, 26814.0, 6326.0, 11359.0, 26643.0
48194.92010274793, 2.0822145645947695E7, 6810.541407901622, 66879.76240934615, 53099.7813346822
60900.64420108769, 13347.550585395013, 148516.79051192233, 20656.64075925483, 148689.2129427744
