5.0, 11.0, 4.0, 9.0, 8.0
0.047879542274052334, 0.0036063492063495017, 0.020129461279474237, 0.10908338922423022, 0.039488755230138506
25.0, 10136.0, 3255.0, 1595.0, 320.0
6253.0, 26858.0, 6350.0, 11388.0, 26677.0
48194.92010274793, 2.1246427675117236E7, 6813.637258345651, 67136.75915007421, 52934.38722752889
64717.80125439798, 12290.034890305382, 146944.4050811227, 20650.799239571068, 148658.99670091836
